Examen, OPT.R
…
OBJETO ENCUESTA

ENUSC <- data_a_usar %>% 
  as_survey_design(id=ID,
                   strata = )

ANLISIS PERCEPCIN DELINCUENCIA-EDAD

ENUSC %>% 
  group_by(percepcion_delincuencia, edad) %>% 
  summarise(prop = survey_prop(vartype = "ci", level = .95, na.rm = T)) %>%
  mutate(per = prop*100) %>%
  ungroup()

## # A tibble: 36 x 6
##    percepcion_delincuencia                   edad   prop prop_low prop_upp   per
##                  <dbl+lbl>              <dbl+lbl>  <dbl>    <dbl>    <dbl> <dbl>
##  1          1 [Aument]     2 [Entre 20 y 24 ao~ 0.0651   0.0616   0.0685  6.51
##  2          1 [Aument]     3 [Entre 25 y 29 ao~ 0.0780   0.0742   0.0818  7.80
##  3          1 [Aument]     4 [Entre 30 y 39 ao~ 0.166    0.161    0.171  16.6 
##  4          1 [Aument]     5 [Entre 40 y 49 ao~ 0.154    0.149    0.159  15.4 
##  5          1 [Aument]     6 [Entre 50 y 59 ao~ 0.176    0.171    0.181  17.6 
##  6          1 [Aument]     7 [Entre 60 y 69 ao~ 0.163    0.157    0.168  16.3 
##  7          1 [Aument]     8 [Entre 70 y 79 ao~ 0.101    0.0967   0.105  10.1 
##  8          1 [Aument]     9 [Entre 80 y 89 ao~ 0.0385   0.0358   0.0412  3.85
##  9          1 [Aument]    NA                     0.0586   0.0553   0.0619  5.86
## 10          2 [Se mantuvo]  2 [Entre 20 y 24 ao~ 0.129    0.115    0.143  12.9 
## # ... with 26 more rows
…
___ ##### ANLISIS PERCPECIN DELINCUENCIA-REGIN

ENUSC %>% 
  group_by(percepcion_delincuencia, region) %>% 
  summarise(prop = survey_prop(vartype = "ci", level = .95, na.rm = T)) %>%
  mutate(per = prop*100) %>%
  ungroup()

## # A tibble: 36 x 6
##    percepcion_delincuencia region   prop prop_low prop_upp   per
##                  <dbl+lbl> <chr>   <dbl>    <dbl>    <dbl> <dbl>
##  1          1 [Aument]    IX     0.0408   0.0380   0.0436  4.08
##  2          1 [Aument]    VII    0.0576   0.0543   0.0609  5.76
##  3          1 [Aument]    VIII   0.0705   0.0668   0.0741  7.05
##  4          1 [Aument]    X      0.0434   0.0406   0.0463  4.34
##  5          1 [Aument]    XI     0.0335   0.0309   0.0360  3.35
##  6          1 [Aument]    XII    0.0652   0.0617   0.0686  6.52
##  7          1 [Aument]    XIV    0.0407   0.0379   0.0435  4.07
##  8          1 [Aument]    XVI    0.0543   0.0511   0.0575  5.43
##  9          1 [Aument]    <NA>   0.594    0.587    0.601  59.4 
## 10          2 [Se mantuvo] IX     0.0390   0.0311   0.0470  3.90
## # ... with 26 more rows
…
